-100.06,-0.000428798
-99.9585,-9.40E-05
-99.8574,-9.44E-05
-99.7542,-9.51E-05
-99.6517,-9.39E-05
-99.5498,-9.39E-05
-99.4478,-9.49E-05
-99.3475,-9.43E-05
-99.2461,-9.42E-05
-99.1437,-9.46E-05
-99.0416,-9.35E-05
-98.9389,-9.38E-05
-98.8366,-9.46E-05
-98.7341,-9.37E-05
-98.6328,-9.50E-05
-98.531,-9.42E-05
-98.4278,-9.36E-05
-98.3255,-9.33E-05
-98.2241,-9.45E-05
-98.1218,-9.30E-05
-98.0204,-9.38E-05
-97.9184,-9.31E-05
-97.8165,-9.36E-05
-97.714,-9.35E-05
-97.6112,-9.29E-05
-97.5086,-9.35E-05
-97.4065,-9.29E-05
-97.3043,-9.23E-05
-97.2022,-9.37E-05
-97.0993,-9.29E-05
-96.997,-9.41E-05
-96.8947,-9.37E-05
-96.792,-9.31E-05
-96.6891,-9.28E-05
-96.5876,-9.30E-05
-96.4843,-9.36E-05
-96.3809,-9.32E-05
-96.278,-9.41E-05
-96.175,-9.27E-05
-96.0716,-9.29E-05
-95.9682,-9.33E-05
-95.8637,-9.31E-05
-95.7597,-9.31E-05
-95.6551,-9.32E-05
-95.5509,-9.32E-05
-95.447,-9.28E-05
-95.345,-9.37E-05
-95.242,-9.23E-05
-95.1379,-9.33E-05
-95.035,-9.40E-05
-94.9323,-9.31E-05
-94.8292,-9.35E-05
-94.7267,-9.26E-05
-94.6245,-9.28E-05
-94.5221,-9.28E-05
-94.4193,-9.21E-05
-94.3171,-9.26E-05
-94.2146,-9.36E-05
-94.1154,-9.26E-05
-94.0139,-9.38E-05
-93.9115,-9.25E-05
-93.8086,-9.24E-05
-93.7068,-9.17E-05
-93.6042,-9.21E-05
-93.5018,-9.25E-05
-93.3993,-9.24E-05
-93.2983,-9.09E-05
-93.1955,-9.19E-05
-93.0929,-9.22E-05
-92.9908,-9.20E-05
-92.888,-9.20E-05
-92.7858,-9.24E-05
-92.6845,-9.19E-05
-92.5819,-9.14E-05
-92.4797,-9.17E-05
-92.3768,-9.11E-05
-92.2746,-9.25E-05
-92.1718,-9.13E-05
-92.0701,-9.19E-05
-91.9679,-9.15E-05
-91.8652,-9.16E-05
-91.7626,-9.19E-05
-91.661,-9.10E-05
-91.5584,-9.25E-05
-91.4556,-9.20E-05
-91.3541,-9.25E-05
-91.2519,-9.08E-05
-91.1495,-9.14E-05
-91.047,-9.10E-05
-90.9446,-9.19E-05
-90.8424,-8.92E-05
-90.7403,-9.16E-05
-90.6383,-9.20E-05
-90.5353,-9.10E-05
-90.4333,-9.14E-05
-90.3304,-9.17E-05
-90.2263,-9.11E-05
-90.1245,-9.13E-05
-90.0231,-9.11E-05
-89.9199,-9.04E-05
-89.8172,-9.18E-05
-89.7145,-9.12E-05
-89.6129,-9.12E-05
-89.51,-8.98E-05
-89.408,-9.05E-05
-89.3057,-9.04E-05
-89.2035,-9.12E-05
-89.1007,-9.11E-05
-88.9987,-9.03E-05
-88.8961,-9.03E-05
-88.7968,-9.05E-05
-88.6945,-9.05E-05
-88.5917,-9.03E-05
-88.4888,-9.05E-05
-88.3872,-9.07E-05
-88.2845,-9.05E-05
-88.182,-9.06E-05
-88.0802,-9.03E-05
-87.9781,-8.97E-05
-87.8752,-8.99E-05
-87.7729,-9.00E-05
-87.6703,-9.07E-05
-87.5672,-9.02E-05
-87.4647,-8.96E-05
-87.3626,-9.05E-05
-87.2595,-8.99E-05
-87.1571,-8.99E-05
-87.0546,-8.94E-05
-86.9518,-8.92E-05
-86.8493,-8.98E-05
-86.7477,-8.98E-05
-86.6451,-8.89E-05
-86.5425,-9.03E-05
-86.44,-8.89E-05
-86.3383,-8.97E-05
-86.2351,-8.87E-05
-86.1333,-8.96E-05
-86.031,-8.99E-05
-85.9287,-8.88E-05
-85.826,-8.95E-05
-85.7237,-9.01E-05
-85.6209,-8.91E-05
-85.5193,-8.94E-05
-85.4173,-8.97E-05
-85.3143,-8.98E-05
-85.2117,-8.90E-05
-85.1095,-8.79E-05
-85.0063,-8.89E-05
-84.9043,-8.95E-05
-84.8026,-8.84E-05
-84.7003,-8.92E-05
-84.5974,-8.81E-05
-84.4945,-8.84E-05
-84.3919,-8.77E-05
-84.2897,-8.95E-05
-84.1877,-8.93E-05
-84.0855,-8.89E-05
-83.9823,-8.79E-05
-83.8805,-8.73E-05
-83.778,-8.90E-05
-83.6754,-8.75E-05
-83.5747,-8.83E-05
-83.4733,-8.90E-05
-83.3703,-8.71E-05
-83.2675,-8.83E-05
-83.1649,-8.82E-05
-83.0626,-8.83E-05
-82.9599,-8.64E-05
-82.8578,-8.85E-05
-82.7558,-8.78E-05
-82.6531,-8.84E-05
-82.5505,-8.82E-05
-82.4469,-8.87E-05
-82.3411,-8.83E-05
-82.2392,-8.79E-05
-82.1369,-8.80E-05
-82.034,-8.75E-05
-81.931,-8.61E-05
-81.8287,-8.69E-05
-81.7261,-8.74E-05
-81.6233,-8.73E-05
-81.5215,-8.76E-05
-81.4194,-8.76E-05
-81.3164,-8.81E-05
-81.214,-8.73E-05
-81.1117,-8.71E-05
-81.0092,-8.70E-05
-80.907,-8.74E-05
-80.8049,-8.81E-05
-80.702,-8.73E-05
-80.5998,-8.62E-05
-80.4975,-8.72E-05
-80.395,-8.72E-05
-80.2922,-8.76E-05
-80.1907,-8.64E-05
-80.0881,-8.72E-05
-79.9842,-8.68E-05
-79.881,-8.68E-05
-79.7792,-8.67E-05
-79.6769,-8.66E-05
-79.575,-8.70E-05
-79.4728,-8.64E-05
-79.3701,-8.86E-05
-79.2676,-8.68E-05
-79.165,-8.77E-05
-79.0617,-8.62E-05
-78.9599,-8.54E-05
-78.8579,-8.76E-05
-78.7553,-8.76E-05
-78.6522,-8.56E-05
-78.549,-8.63E-05
-78.4465,-8.51E-05
-78.3461,-8.63E-05
-78.2441,-8.69E-05
-78.1423,-8.64E-05
-78.0391,-8.58E-05
-77.9368,-8.61E-05
-77.8343,-8.61E-05
-77.7321,-8.56E-05
-77.6296,-8.59E-05
-77.528,-8.64E-05
-77.425,-8.59E-05
-77.3231,-8.70E-05
-77.2206,-8.52E-05
-77.1185,-8.62E-05
-77.0166,-8.54E-05
-76.9156,-8.57E-05
-76.8132,-8.53E-05
-76.7104,-8.53E-05
-76.6076,-8.52E-05
-76.5055,-8.42E-05
-76.4026,-8.51E-05
-76.3006,-8.65E-05
-76.1983,-8.66E-05
-76.0956,-8.62E-05
-75.9932,-8.45E-05
-75.8909,-8.57E-05
-75.7881,-8.51E-05
-75.6856,-8.48E-05
-75.5835,-8.57E-05
-75.4805,-8.51E-05
-75.3775,-8.46E-05
-75.275,-8.50E-05
-75.1722,-8.51E-05
-75.0687,-8.48E-05
-74.9657,-8.57E-05
-74.8625,-8.58E-05
-74.7583,-8.46E-05
-74.654,-8.54E-05
-74.5495,-8.49E-05
-74.4468,-8.59E-05
-74.3436,-8.48E-05
-74.2405,-8.51E-05
-74.1368,-8.55E-05
-74.0339,-8.53E-05
-73.9304,-8.49E-05
-73.827,-8.37E-05
-73.724,-8.60E-05
-73.6222,-8.60E-05
-73.5195,-8.51E-05
-73.4165,-8.44E-05
-73.3138,-8.49E-05
-73.2116,-8.51E-05
-73.1117,-8.48E-05
-73.0098,-8.48E-05
-72.9076,-8.44E-05
-72.8051,-8.37E-05
-72.703,-8.50E-05
-72.6006,-8.42E-05
-72.4977,-8.43E-05
-72.3959,-8.47E-05
-72.294,-8.32E-05
-72.1913,-8.35E-05
-72.0885,-8.34E-05
-71.9866,-8.37E-05
-71.8838,-8.41E-05
-71.7813,-8.51E-05
-71.6796,-8.40E-05
-71.5781,-8.39E-05
-71.4749,-8.37E-05
-71.3724,-8.30E-05
-71.2696,-8.39E-05
-71.1673,-8.26E-05
-71.0651,-8.42E-05
-70.9632,-8.40E-05
-70.8603,-8.34E-05
-70.7585,-8.49E-05
-70.6558,-8.48E-05
-70.5535,-8.29E-05
-70.4506,-8.24E-05
-70.3493,-8.37E-05
-70.2471,-8.20E-05
-70.144,-8.26E-05
-70.0416,-8.35E-05
-69.9397,-8.36E-05
-69.8365,-8.40E-05
-69.7346,-8.29E-05
-69.6326,-8.27E-05
-69.5299,-8.32E-05
-69.4276,-8.17E-05
-69.325,-8.36E-05
-69.2207,-8.28E-05
-69.1188,-8.25E-05
-69.0168,-8.32E-05
-68.9142,-8.20E-05
-68.8111,-8.30E-05
-68.7088,-8.24E-05
-68.6065,-8.19E-05
-68.5037,-8.33E-05
-68.4017,-8.26E-05
-68.3,-8.23E-05
-68.1967,-8.23E-05
-68.0944,-8.19E-05
-67.9921,-8.14E-05
-67.892,-8.31E-05
-67.7898,-8.08E-05
-67.688,-8.25E-05
-67.5852,-8.27E-05
-67.4829,-8.05E-05
-67.3803,-8.20E-05
-67.2778,-8.22E-05
-67.175,-8.13E-05
-67.0734,-8.17E-05
-66.9712,-8.30E-05
-66.8681,-8.23E-05
-66.7658,-8.20E-05
-66.6638,-8.22E-05
-66.5604,-8.25E-05
-66.4574,-8.18E-05
-66.3553,-8.19E-05
-66.2527,-8.21E-05
-66.1499,-8.11E-05
-66.0472,-8.12E-05
-65.9447,-8.13E-05
-65.8423,-8.16E-05
-65.7403,-8.24E-05
-65.6381,-8.14E-05
-65.5348,-8.08E-05
-65.4328,-8.12E-05
-65.3307,-8.20E-05
-65.2272,-8.14E-05
-65.1251,-8.15E-05
-65.0239,-8.16E-05
-64.9205,-8.07E-05
-64.818,-7.92E-05
-64.7156,-8.12E-05
-64.6131,-8.13E-05
-64.5109,-8.13E-05
-64.4088,-8.12E-05
-64.3063,-8.09E-05
-64.2039,-8.04E-05
-64.1013,-8.07E-05
-63.9986,-8.11E-05
-63.8958,-8.04E-05
-63.7941,-8.09E-05
-63.6923,-8.09E-05
-63.589,-8.07E-05
-63.4861,-8.03E-05
-63.384,-8.15E-05
-63.2807,-8.06E-05
-63.1787,-8.07E-05
-63.0763,-8.01E-05
-62.974,-8.04E-05
-62.8715,-8.03E-05
-62.769,-8.01E-05
-62.6662,-8.02E-05
-62.5769,-8.02E-05
-62.4747,-8.03E-05
-62.3722,-7.94E-05
-62.2692,-8.02E-05
-62.1672,-7.98E-05
-62.0647,-7.96E-05
-61.9614,-7.97E-05
-61.8592,-8.01E-05
-61.7576,-7.97E-05
-61.6545,-7.94E-05
-61.5519,-7.98E-05
-61.4489,-7.90E-05
-61.3443,-7.91E-05
-61.2404,-7.88E-05
-61.1381,-7.98E-05
-61.0355,-7.92E-05
-60.9331,-7.96E-05
-60.8299,-7.87E-05
-60.7274,-7.96E-05
-60.6243,-7.90E-05
-60.5227,-7.86E-05
-60.4207,-7.90E-05
-60.3175,-7.90E-05
-60.215,-7.90E-05
-60.1133,-7.98E-05
-60.0097,-7.93E-05
-59.9075,-7.87E-05
-59.8055,-8.02E-05
-59.7033,-7.80E-05
-59.6008,-7.74E-05
-59.4982,-7.90E-05
-59.3955,-7.80E-05
-59.2933,-7.84E-05
-59.191,-7.97E-05
-59.0885,-7.83E-05
-58.9851,-7.87E-05
-58.8817,-7.82E-05
-58.7794,-7.91E-05
-58.6769,-7.95E-05
-58.5746,-7.86E-05
-58.4734,-7.89E-05
-58.3702,-7.76E-05
-58.2677,-7.80E-05
-58.1648,-7.83E-05
-58.0625,-7.77E-05
-57.96,-7.88E-05
-57.858,-7.67E-05
-57.7558,-7.75E-05
-57.6532,-7.83E-05
-57.5506,-7.78E-05
-57.4485,-7.69E-05
-57.3476,-7.69E-05
-57.246,-7.74E-05
-57.1443,-7.73E-05
-57.0411,-7.76E-05
-56.9387,-7.80E-05
-56.8368,-7.73E-05
-56.7338,-7.82E-05
-56.6316,-7.73E-05
-56.5296,-7.80E-05
-56.4275,-7.87E-05
-56.325,-7.76E-05
-56.2225,-7.67E-05
-56.1206,-7.67E-05
-56.0187,-7.58E-05
-55.9167,-7.60E-05
-55.8146,-7.67E-05
-55.7115,-7.65E-05
-55.6095,-7.65E-05
-55.5067,-7.62E-05
-55.4037,-7.73E-05
-55.3014,-7.64E-05
-55.2,-7.59E-05
-55.0969,-7.67E-05
-54.9943,-7.60E-05
-54.8915,-7.57E-05
-54.7889,-7.66E-05
-54.6862,-7.56E-05
-54.5841,-7.58E-05
-54.4814,-7.55E-05
-54.3786,-7.63E-05
-54.2756,-7.71E-05
-54.1726,-7.70E-05
-54.0686,-7.57E-05
-53.966,-7.63E-05
-53.8629,-7.63E-05
-53.7585,-7.67E-05
-53.6545,-7.61E-05
-53.5507,-7.66E-05
-53.4471,-7.66E-05
-53.3435,-7.61E-05
-53.2405,-7.65E-05
-53.1373,-7.61E-05
-53.0333,-7.81E-05
-52.9295,-7.56E-05
-52.8261,-7.61E-05
-52.7231,-7.56E-05
-52.62,-7.52E-05
-52.5173,-7.50E-05
-52.4139,-7.54E-05
-52.3114,-7.56E-05
-52.2089,-7.49E-05
-52.1084,-7.46E-05
-52.0061,-7.61E-05
-51.9048,-7.52E-05
-51.8015,-7.52E-05
-51.6989,-7.45E-05
-51.5962,-7.54E-05
-51.4938,-7.49E-05
-51.3913,-7.38E-05
-51.2891,-7.43E-05
-51.187,-7.58E-05
-51.0847,-7.46E-05
-50.9819,-7.50E-05
-50.8791,-7.56E-05
-50.7764,-7.45E-05
-50.675,-7.52E-05
-50.573,-7.42E-05
-50.4699,-7.52E-05
-50.3674,-7.53E-05
-50.2651,-7.49E-05
-50.1622,-7.37E-05
-50.0599,-7.40E-05
-49.9575,-7.47E-05
-49.8556,-7.44E-05
-49.7529,-7.43E-05
-49.6502,-7.45E-05
-49.5481,-7.45E-05
-49.4455,-7.38E-05
-49.3433,-7.41E-05
-49.2411,-7.39E-05
-49.1381,-7.38E-05
-49.0363,-7.31E-05
-48.9341,-7.39E-05
-48.8308,-7.31E-05
-48.7285,-7.29E-05
-48.6273,-7.42E-05
-48.5241,-7.22E-05
-48.4216,-7.43E-05
-48.3188,-7.37E-05
-48.216,-7.37E-05
-48.1127,-7.28E-05
-48.0105,-7.43E-05
-47.9083,-7.37E-05
-47.8058,-7.32E-05
-47.7028,-7.27E-05
-47.6005,-7.28E-05
-47.497,-7.28E-05
-47.3954,-7.33E-05
-47.2936,-7.18E-05
-47.1904,-7.32E-05
-47.0879,-7.28E-05
-46.9862,-7.26E-05
-46.8852,-7.29E-05
-46.7831,-7.35E-05
-46.681,-7.27E-05
-46.5787,-7.28E-05
-46.476,-7.25E-05
-46.3732,-7.23E-05
-46.2709,-7.23E-05
-46.1683,-7.38E-05
-46.0659,-7.22E-05
-45.964,-7.10E-05
-45.8609,-7.40E-05
-45.7587,-7.26E-05
-45.6567,-7.22E-05
-45.5533,-7.11E-05
-45.45,-7.16E-05
-45.3483,-7.26E-05
-45.2451,-7.25E-05
-45.1425,-7.18E-05
-45.0395,-7.08E-05
-44.9373,-7.17E-05
-44.8346,-7.18E-05
-44.7324,-7.13E-05
-44.63,-7.24E-05
-44.5275,-7.07E-05
-44.425,-7.21E-05
-44.3229,-7.19E-05
-44.2193,-7.14E-05
-44.1174,-7.08E-05
-44.0155,-7.28E-05
-43.9124,-7.08E-05
-43.81,-7.17E-05
-43.7079,-7.28E-05
-43.6051,-7.06E-05
-43.5024,-7.17E-05
-43.4002,-7.07E-05
-43.2985,-7.07E-05
-43.1957,-7.07E-05
-43.0929,-7.21E-05
-42.9899,-7.18E-05
-42.8876,-7.16E-05
-42.7853,-7.06E-05
-42.6832,-7.10E-05
-42.58,-6.96E-05
-42.4778,-7.13E-05
-42.3753,-7.10E-05
-42.2721,-7.08E-05
-42.1698,-7.12E-05
-42.0681,-6.93E-05
-41.9652,-7.14E-05
-41.8627,-7.02E-05
-41.7599,-6.99E-05
-41.6675,-7.04E-05
-41.5646,-6.88E-05
-41.4622,-7.12E-05
-41.3604,-7.02E-05
-41.2574,-7.05E-05
-41.1548,-6.86E-05
-41.0523,-6.91E-05
-40.9494,-6.96E-05
-40.8472,-7.01E-05
-40.7452,-6.96E-05
-40.642,-6.94E-05
-40.5392,-6.96E-05
-40.4365,-6.91E-05
-40.3318,-6.86E-05
-40.2277,-6.89E-05
-40.1253,-6.92E-05
-40.0231,-6.95E-05
-39.9201,-7.06E-05
-39.8171,-6.94E-05
-39.7146,-6.89E-05
-39.6121,-6.94E-05
-39.5096,-6.95E-05
-39.4076,-6.89E-05
-39.3044,-6.85E-05
-39.2025,-6.97E-05
-39.1,-6.83E-05
-38.9968,-6.87E-05
-38.8943,-6.91E-05
-38.793,-6.86E-05
-38.6902,-6.99E-05
-38.5875,-6.77E-05
-38.4846,-6.93E-05
-38.3823,-6.88E-05
-38.2795,-6.95E-05
-38.1774,-6.85E-05
-38.0752,-6.86E-05
-37.9722,-6.74E-05
-37.8681,-6.75E-05
-37.7655,-6.81E-05
-37.6629,-6.74E-05
-37.5613,-6.78E-05
-37.4596,-6.93E-05
-37.3567,-6.73E-05
-37.2539,-6.74E-05
-37.1515,-6.73E-05
-37.0485,-6.76E-05
-36.9461,-6.82E-05
-36.8439,-6.70E-05
-36.7422,-6.73E-05
-36.639,-6.74E-05
-36.5365,-6.74E-05
-36.4342,-6.62E-05
-36.334,-6.70E-05
-36.2315,-6.75E-05
-36.1299,-6.73E-05
-36.0267,-6.79E-05
-35.9248,-6.66E-05
-35.8221,-6.68E-05
-35.7194,-6.72E-05
-35.6169,-6.75E-05
-35.5155,-6.68E-05
-35.413,-6.70E-05
-35.3102,-6.75E-05
-35.2076,-6.67E-05
-35.1067,-6.64E-05
-35.0041,-6.66E-05
-34.902,-6.59E-05
-34.7999,-6.63E-05
-34.6974,-6.71E-05
-34.5945,-6.71E-05
-34.492,-6.59E-05
-34.389,-6.64E-05
-34.287,-6.71E-05
-34.1851,-6.55E-05
-34.0823,-6.55E-05
-33.9795,-6.63E-05
-33.8776,-6.66E-05
-33.7745,-6.55E-05
-33.6718,-6.55E-05
-33.5697,-6.57E-05
-33.4681,-6.52E-05
-33.3648,-6.56E-05
-33.2621,-6.56E-05
-33.1596,-6.67E-05
-33.0566,-6.46E-05
-32.954,-6.53E-05
-32.8518,-6.57E-05
-32.7482,-6.53E-05
-32.6452,-6.54E-05
-32.5409,-6.43E-05
-32.4378,-6.60E-05
-32.3342,-6.61E-05
-32.232,-6.46E-05
-32.1285,-6.47E-05
-32.0247,-6.31E-05
-31.9205,-6.53E-05
-31.8172,-6.46E-05
-31.7135,-6.52E-05
-31.6101,-6.46E-05
-31.507,-6.41E-05
-31.4035,-6.50E-05
-31.3,-6.43E-05
-31.1972,-6.40E-05
-31.0966,-6.42E-05
-30.9941,-6.43E-05
-30.892,-6.38E-05
-30.7887,-6.39E-05
-30.6859,-6.34E-05
-30.5835,-6.35E-05
-30.4807,-6.40E-05
-30.3775,-6.28E-05
-30.2752,-6.45E-05
-30.1735,-6.45E-05
-30.0706,-6.32E-05
-29.968,-6.36E-05
-29.8657,-6.33E-05
-29.7631,-6.34E-05
-29.6607,-6.27E-05
-29.5589,-6.28E-05
-29.4558,-6.35E-05
-29.3535,-6.39E-05
-29.2509,-6.31E-05
-29.1481,-6.28E-05
-29.0456,-6.27E-05
-28.944,-6.31E-05
-28.8414,-6.22E-05
-28.7387,-6.32E-05
-28.6361,-6.20E-05
-28.5337,-6.30E-05
-28.431,-6.33E-05
-28.3289,-6.26E-05
-28.2269,-6.20E-05
-28.1243,-6.24E-05
-28.0216,-6.21E-05
-27.9193,-6.16E-05
-27.8163,-6.18E-05
-27.7142,-6.27E-05
-27.6121,-6.20E-05
-27.5097,-6.20E-05
-27.4068,-6.19E-05
-27.3045,-6.09E-05
-27.2013,-6.18E-05
-27.0979,-6.11E-05
-26.9953,-6.06E-05
-26.8937,-6.12E-05
-26.7908,-6.14E-05
-26.6879,-6.09E-05
-26.5853,-6.25E-05
-26.4827,-6.09E-05
-26.3802,-6.19E-05
-26.2784,-6.16E-05
-26.1753,-5.99E-05
-26.0732,-6.11E-05
-25.9708,-6.12E-05
-25.8702,-6.08E-05
-25.7675,-6.08E-05
-25.6661,-6.05E-05
-25.5637,-6.07E-05
-25.4608,-5.96E-05
-25.358,-6.09E-05
-25.2558,-5.92E-05
-25.153,-6.06E-05
-25.0506,-6.03E-05
-24.9486,-6.00E-05
-24.8462,-6.05E-05
-24.7435,-5.91E-05
-24.6412,-5.99E-05
-24.5381,-6.01E-05
-24.4349,-6.01E-05
-24.3328,-5.95E-05
-24.2299,-5.99E-05
-24.1269,-5.97E-05
-24.0245,-5.89E-05
-23.9218,-5.93E-05
-23.8191,-5.96E-05
-23.7167,-5.86E-05
-23.6149,-5.97E-05
-23.512,-5.84E-05
-23.4092,-5.92E-05
-23.3069,-5.86E-05
-23.204,-5.84E-05
-23.1016,-5.78E-05
-22.9999,-5.74E-05
-22.8967,-5.84E-05
-22.7947,-5.88E-05
-22.692,-5.85E-05
-22.5889,-5.94E-05
-22.4865,-5.89E-05
-22.385,-5.76E-05
-22.2822,-5.67E-05
-22.1793,-5.78E-05
-22.0766,-5.67E-05
-21.9747,-5.76E-05
-21.8712,-5.61E-05
-21.7691,-5.72E-05
-21.6671,-5.69E-05
-21.5644,-5.61E-05
-21.4617,-5.67E-05
-21.359,-5.60E-05
-21.256,-5.68E-05
-21.1538,-5.63E-05
-21.0517,-5.62E-05
-20.949,-5.69E-05
-20.8462,-5.60E-05
-20.7441,-5.59E-05
-20.6541,-5.67E-05
-20.5507,-5.50E-05
-20.4484,-5.56E-05
-20.3469,-5.51E-05
-20.2438,-5.54E-05
-20.1411,-5.50E-05
-20.0386,-5.53E-05
-19.936,-5.50E-05
-19.8332,-5.53E-05
-19.7315,-5.43E-05
-19.6286,-5.41E-05
-19.5261,-5.54E-05
-19.4232,-5.41E-05
-19.3187,-5.38E-05
-19.2139,-5.50E-05
-19.1121,-5.48E-05
-19.0094,-5.39E-05
-18.9064,-5.43E-05
-18.8032,-5.31E-05
-18.7009,-5.38E-05
-18.5979,-5.23E-05
-18.4953,-5.33E-05
-18.3932,-5.29E-05
-18.2909,-5.26E-05
-18.188,-5.29E-05
-18.0858,-5.25E-05
-17.9823,-5.18E-05
-17.8802,-5.25E-05
-17.7784,-5.15E-05
-17.6759,-5.05E-05
-17.5729,-5.08E-05
-17.4707,-5.15E-05
-17.3679,-5.11E-05
-17.2652,-5.12E-05
-17.1624,-5.10E-05
-17.0609,-5.10E-05
-16.9575,-5.08E-05
-16.8536,-5.09E-05
-16.7508,-4.97E-05
-16.649,-4.96E-05
-16.5464,-4.91E-05
-16.4446,-4.89E-05
-16.342,-4.90E-05
-16.2395,-4.90E-05
-16.1367,-4.94E-05
-16.034,-4.93E-05
-15.9312,-4.98E-05
-15.8294,-4.86E-05
-15.7271,-4.79E-05
-15.6241,-4.83E-05
-15.5215,-4.73E-05
-15.4215,-4.62E-05
-15.3189,-4.71E-05
-15.2163,-4.77E-05
-15.1143,-4.74E-05
-15.0122,-4.70E-05
-14.9093,-4.71E-05
-14.807,-4.57E-05
-14.7041,-4.59E-05
-14.602,-4.60E-05
-14.5,-4.59E-05
-14.3976,-4.59E-05
-14.2948,-4.59E-05
-14.1929,-4.52E-05
-14.0911,-4.46E-05
-13.9885,-4.39E-05
-13.8865,-4.39E-05
-13.7847,-4.30E-05
-13.6821,-4.35E-05
-13.5791,-4.38E-05
-13.4763,-4.36E-05
-13.3742,-4.28E-05
-13.2715,-4.20E-05
-13.1695,-4.27E-05
-13.0668,-4.12E-05
-12.9645,-4.17E-05
-12.8619,-4.05E-05
-12.7591,-4.10E-05
-12.6565,-4.04E-05
-12.5548,-4.03E-05
-12.4526,-4.06E-05
-12.3499,-4.00E-05
-12.2472,-3.96E-05
-12.1451,-3.96E-05
-12.0421,-3.89E-05
-11.9396,-3.86E-05
-11.8377,-3.82E-05
-11.7355,-3.83E-05
-11.6323,-3.81E-05
-11.5287,-3.78E-05
-11.4259,-3.79E-05
-11.3235,-3.63E-05
-11.2213,-3.63E-05
-11.1189,-3.55E-05
-11.0158,-3.64E-05
-10.9132,-3.60E-05
-10.8102,-3.39E-05
-10.7071,-3.50E-05
-10.6045,-3.48E-05
-10.5028,-3.44E-05
-10.3993,-3.33E-05
-10.296,-3.24E-05
-10.193,-3.24E-05
-10.0929,-3.23E-05
-9.98971,-3.24E-05
-9.88688,-3.19E-05
-9.78355,-3.12E-05
-9.68011,-3.10E-05
-9.5768,-2.97E-05
-9.47294,-2.97E-05
-9.36919,-2.97E-05
-9.26664,-2.89E-05
-9.16332,-2.77E-05
-9.05957,-2.81E-05
-8.95635,-2.75E-05
-8.85439,-2.72E-05
-8.75023,-2.61E-05
-8.64698,-2.60E-05
-8.54498,-2.62E-05
-8.44219,-2.45E-05
-8.339,-2.52E-05
-8.23597,-2.37E-05
-8.13305,-2.29E-05
-8.03072,-2.31E-05
-7.92849,-2.17E-05
-7.82588,-2.19E-05
-7.72286,-2.00E-05
-7.62081,-2.07E-05
-7.51792,-1.99E-05
-7.41501,-1.90E-05
-7.31274,-1.88E-05
-7.21112,-1.79E-05
-7.10833,-1.74E-05
-7.0057,-1.69E-05
-6.90312,-1.57E-05
-6.80071,-1.54E-05
-6.69796,-1.51E-05
-6.59598,-1.37E-05
-6.49348,-1.28E-05
-6.39096,-1.28E-05
-6.28817,-1.01E-05
-6.18534,-1.18E-05
-6.08128,-8.77E-06
-5.97966,-1.03E-05
-5.87737,-8.46E-06
-5.77436,-6.83E-06
-5.67157,-6.91E-06
-5.5693,-5.36E-06
-5.46653,-4.32E-06
-5.36394,-3.38E-06
-5.26202,-4.26E-06
-5.15985,-1.45E-06
-5.05672,-1.33E-06
-4.95441,2.92E-09
-4.85382,8.92E-07
-4.75153,2.01E-06
-4.64958,3.22E-06
-4.54732,4.70E-06
-4.44429,5.30E-06
-4.34194,7.70E-06
-4.2394,8.02E-06
-4.13648,1.00E-05
-4.03387,1.05E-05
-3.93247,1.28E-05
-3.82965,1.41E-05
-3.72689,1.51E-05
-3.6242,1.75E-05
-3.52231,1.81E-05
-3.41814,2.02E-05
-3.31574,2.26E-05
-3.21326,2.49E-05
-3.11053,2.82E-05
-3.00775,2.98E-05
-2.90501,3.02E-05
-2.8022,3.32E-05
-2.70014,3.43E-05
-2.59807,3.85E-05
-2.49529,4.13E-05
-2.39249,4.46E-05
-2.2901,4.54E-05
-2.18743,4.98E-05
-2.08488,5.10E-05
-1.98283,5.47E-05
-1.88068,5.80E-05
-1.77779,5.92E-05
-1.67517,6.36E-05
-1.57239,6.81E-05
-1.4699,7.17E-05
-1.36792,7.34E-05
-1.26552,7.91E-05
-1.16258,8.21E-05
-1.06039,8.72E-05
-0.95812,9.18E-05
-0.854607,9.56E-05
-0.752217,0.000101774
-0.650452,0.000105393
-0.54776,0.000112799
-0.444895,0.00011798
-0.342207,0.000125553
-0.239995,0.000133192
-0.136974,0.000139871
-0.0350803,0.000152163
0.0673928,0.000161405
0.169887,0.000173336
0.272663,0.000187814
0.365745,0.000202851
0.469049,0.000222593
0.570884,0.000248901
0.672907,0.000279315
0.775748,0.000315165
0.878276,0.000363952
0.98028,0.000415866
1.08305,0.000474098
1.18547,0.000532737
1.28722,0.000580738
1.38936,0.000625656
1.49226,0.000661872
1.59507,0.000694958
1.69914,0.000721963
1.80383,0.000747051
1.90604,0.000777814
2.00857,0.000795534
2.11153,0.000818699
2.21357,0.00084159
2.31654,0.000859869
2.4193,0.000879629
2.52171,0.000901249
2.62323,0.000915672
2.72593,0.000930162
2.8289,0.000949469
2.93113,0.000963899
3.03378,0.00098033
3.13659,0.00099555
3.23844,0.00101353
3.34073,0.00102877
3.44333,0.00104478
3.54604,0.00105762
3.64902,0.00106925
3.75163,0.00107945
3.85345,0.00109396
3.95562,0.00110991
4.05895,0.00111967
4.16282,0.00113427
4.26435,0.00114818
4.36717,0.00116264
4.46983,0.00117361
4.57157,0.00118667
4.6736,0.00120041
4.77667,0.00120598
4.8793,0.00122282
4.98216,0.00123634
5.08453,0.00124276
5.18677,0.00126481
5.28894,0.00127172
5.39212,0.0012821
5.49446,0.00129705
5.59632,0.00130977
5.69939,0.00132198
5.80188,0.00133017
5.90311,0.00134338
6.00566,0.00134718
6.10861,0.00136253
6.211,0.00137417
6.31309,0.00138772
6.41603,0.00139803
6.51811,0.00141173
6.62025,0.00142023
6.72288,0.00142936
6.82527,0.00143676
6.92689,0.00144006
7.02949,0.00145588
7.13104,0.00145865
7.23281,0.00147158
7.33557,0.0014783
7.43871,0.00148877
7.54101,0.00150315
7.64343,0.00151233
7.74628,0.0015229
7.84822,0.00152582
7.94983,0.00154181
8.05319,0.00154834
8.15557,0.00155674
8.25828,0.00156488
8.36078,0.0015787
8.46271,0.00157883
8.56464,0.00159153
8.6676,0.00159817
8.76974,0.00160318
8.8723,0.00161881
8.97521,0.00162269
9.07808,0.00162866
9.17945,0.00164213
9.28252,0.00164816
9.38587,0.00165283
9.48956,0.00166005
9.59218,0.00167218
9.69555,0.00167861
9.79792,0.0016888
9.90093,0.00169437
10.0039,0.00170918
10.1075,0.00171556
