# compile vhdl design source files
vhdl packages  \
"../../../../../../generic_packages/constants_pck.vhd" \
"../../../../../../generic_packages/types_pck.vhd" \
"../../../../../../generic_packages/current_LUT_pck.vhd" \
"../../../../../../generic_packages/goldschmidt_pck/goldschmidt_pck.vhd" \

vhdl pcr  \
"../../../../../cores/current_responce_v1_0/current_responce.vhd" \
"../../../../../cores/data_aquire_v1_0/data_aquire.vhd" \
"../../../../../cores/data_collect_v1_0/data_collect.vhd" \
"../../../../../cores/data_output_v1_0/data_output.vhd" \

vhdl packages  \
"../../../../../../generic_packages/temp_profile_pck.vhd" \

vhdl pcr  \
"../../../../../cores/input_control_v1_0/input_control.vhd" \

vhdl packages  \
"../../../../../../generic_packages/reset_v1_0/reset.vhd" \

vhdl sim_packages  \
"../../../../../../generic_packages/sim_packages/sim_constants.vhd" \
"../../../../../../generic_packages/sim_packages/sim_subprograms.vhd" \

vhdl pcr  \
"../../../../../cores/top_pcr_v1_0/top_pcr.vhd" \

vhdl2008 sim_pcr  \
"../../../../../cores/top_pcr_v1_0/top_pcr_tb.vhd" \

# Do not sort compile order
nosort
